<svg viewBox="0 0 16 23" xmlns="http://www.w3.org/2000/svg">
  <g fill="none" fill-rule="evenodd">
    <path d="M8 0c4.418278 0 8 3.581722 8 8 0 4.418-8 14.388-8 14.388S0 12.418 0 8c0-4.418278 3.581722-8 8-8z" fill="#0070BF" fill-rule="nonzero"/>
    <g transform="translate(3.5 4)">
      <circle stroke="#FFF" stroke-width=".5" cx="4.645" cy=".854" r="1"/>
      <path d="M8.12 5.183v.456a2.5070002 2.5070002 0 0 1-.114.57 3.48400054 3.48400054 0 0 1-.285.684c-.13326505.25400224-.30647206.48494492-.513.684a6.82699965 6.82699965 0 0 1-.684.627l-.854.513-.513.171c-.114 0-.171.057-.285.057-.114 0-.171.057-.342.057a2.50700018 2.50700018 0 0 1-.57-.114l-.513-.171c-.30831083-.12814107-.59606574-.30099619-.854-.513-.26618735-.16308485-.49842751-.37597167-.684-.627a5.3440002 5.3440002 0 0 1-.509-.685 3.48400012 3.48400012 0 0 1-.285-.684c-.057-.228-.057-.4-.114-.57v-.455c0-.114.114-.228.228-.171.04710904-.00679108.0946626.00902647.12831806.04268194C1.39097353 5.0883374 1.40679108 5.13589096 1.4 5.183a1.821 1.821 0 0 0 .057.4c.228.114.228.228.342.4a2.30899999 2.30899999 0 0 0 .285.513 3.68499962 3.68499962 0 0 0 .456.513c.18432094.18332223.39580537.33712909.627.456a4.70800012 4.70800012 0 0 0 .74.4c.114.057.285.114.4.171.12676228.05106645.26401911.07062555.4.057h.114c.057 0 .114-.057.171-.057.114-.057.285-.114.4-.171a3.06899988 3.06899988 0 0 0 .74-.4 5.9659996 5.9659996 0 0 0 .627-.456 3.68499962 3.68499962 0 0 0 .456-.513 2.30899999 2.30899999 0 0 0 .285-.513 2.77700045 2.77700045 0 0 1 .171-.4 2.58100033 2.58100033 0 0 0 .057-.456c0-.114.114-.171.228-.171.114.057.171.114.171.228l-.007-.001z" fill="#FFF" fill-rule="nonzero"/>
      <path d="M1.512 5.014l.684.8c.05505202.0519542.08625414.12430348.08625414.2 0 .07569652-.03120212.1480458-.08625414.2-.0519542.05505202-.12430348.08625414-.2.08625414-.07569652 0-.1480458-.03120212-.2-.08625414v-.057l-.57-.854c-.114-.114-.114-.228 0-.285.0854512-.05998502.19890465-.06157178.286-.004zM8.12 5.298l-.57.854c-.06109242.08145655-.1610007.1241331-.26209034.11195379-.10108966-.0121793-.18800277-.07736414-.228-.171C7.01991242 5.99931793 7.03290758 5.89145655 7.094 5.81v-.056l.684-.8c.02783068-.05292653.0827023-.08606836.1425-.08606836.0597977 0 .11466932.03314183.1425.08606836.07407261.09846249.0953558.22690839.057.344zM4.93 1.709l.114 6.835H4.19l.171-6.835z" fill="#FFF" fill-rule="nonzero"/>
    </g>
  </g>
</svg>