<svg viewBox="0 0 15 15" xmlns="http://www.w3.org/2000/svg">
  <g fill="none" fill-rule="evenodd">
    <path d="M7.5 1.5c3.313709 0 6 2.686291 6 6s-2.686291 6-6 6-6-2.686291-6-6 2.686291-6 6-6zM8 7.5V3M10.5 9.9l-3-2.4" stroke="#0070BF" stroke-width="1.5"/>
    <g transform="translate(6.137 6.137)">
      <circle fill="#0070BF" fill-rule="nonzero" cx="1.363" cy="1.363" r="1.363"/>
      <circle stroke="#0070BF" cx="1.363" cy="1.363" r="1"/>
    </g>
  </g>
</svg>